name,code
Akademia Finansów i Biznesu Vistula [do 2012-11-01 Akademia Finansów w Warszawie],AFW
Akademia Górniczo-Hutnicza im. Stanisława Staszica w Krakowie,AGH
Akademia Humanistyczna im. Aleksandra Gieysztora w Pułtusku,AHAGP
Akademia Humanistyczno-Ekonomiczna w Łodzi,AHEL
Akademia Ignatianum w Krakowie,AIK
Akademia im. Jana Długosza w Częstochowie,AJDC
Akademia Leona Koźmińskiego w Warszawie,ALKW
Akademia Marynarki Wojennej im. Bohaterów Westerplatte,AMW
Akademia Morska w Gdyni,AMG
Akademia Morska w Szczecinie,AMS
Akademia Muzyczna im. Feliksa Nowowiejskiego w Bydgoszczy,AMFNB
Akademia Muzyczna im. Grażyny i Kiejstuta Bacewiczów w Łodzi,AMGKBL
Akademia Muzyczna im. Ignacego Jana Paderewskiego w Poznaniu,AMIJPP
Akademia Muzyczna im. Karola Lipińskiego we Wrocławiu,AMKLW
Akademia Muzyczna im. Karola Szymanowskiego w Katowicach,AMKSK
Akademia Muzyczna im. Stanisława Moniuszki w Gdańsku,AMSMG
Akademia Muzyczna w Krakowie,AMK
Akademia Obrony Narodowej,AON
Akademia Pedagogiki Specjalnej im. Marii Grzegorzewskiej w Warszawie,APSMGW
Akademia Polonijna w Częstochowie,APC
Akademia Pomorska w Słupsku,APS
Akademia Sztuk Pięknych im. Eugeniusza Gepperta we Wrocławiu,ASPEGW
Akademia Sztuk Pięknych im. Jana Matejki w Krakowie,ASPJMK
Akademia Sztuk Pięknych im. Władysława Strzemińskiego w Łodzi,ASPWSL
Akademia Sztuk Pięknych w Gdańsku,ASPG
Akademia Sztuk Pięknych w Katowicach,ASPK
Akademia Sztuk Pięknych w Warszawie,ASPW
Akademia Sztuki w Szczecinie,AS
Akademia Teatralna im. Aleksandra Zelwerowicza w Warszawie,ATAZW
Akademia Techniczno-Humanistyczna w Bielsku-Białej,ATHBB
Akademia Wychowania Fizycznego i Sportu im. Jędrzeja Śniadeckiego w Gdańsku,AWFSJSG
Akademia Wychowania Fizycznego im. Bronisława Czecha w Krakowie,AWFBCK
Akademia Wychowania Fizycznego im. Eugeniusza Piaseckiego w Poznaniu,AWFEPP
Akademia Wychowania Fizycznego im. Jerzego Kukuczki w Katowicach,AWFJKK
Akademia Wychowania Fizycznego Józefa Piłsudskiego w Warszawie,AWFJPW
Akademia Wychowania Fizycznego we Wrocławiu,AWFW
ALMAMER Szkoła Wyższa z siedzibą w Warszawie,ALMAMERSWW
Ateneum - Szkoła Wyższa w Gdańsku,ASWG
Beskidzka Wyższa Szkoła Umiejętności w Żywcu,BWSUZ
Bielska Wyższa Szkoła im. Józefa Tyszkiewicza w Bielsku-Białej,BWSJTBB
Bydgoska Szkoła Wyższa w Bydgoszczy,BSWB
Bydgoska Wyższa Szkoła Główna [do 2013-05-09 Bydgoska Wyższa Szkoła Główna z siedzibą w Bydgoszczy],BWSGSB
Centrum Medyczne Kształcenia Podyplomowego w Warszawie,CMKPW
Chrześcijańska Akademia Teologiczna w Warszawie,CATW
Collegium Civitas w Warszawie,CCW
Collegium Humanitatis z siedzibą w Świdnicy,CHŚ
Collegium Masoviense - Wyższa Szkoła Nauk o Zdrowiu w Żyrardowie,CMWSNOZZ
Collegium Mazovia Innowacyjna Szkoła Wyższa w Siedlcach,CMISWS
Collegium Varsoviense,CV
Dolnośląska Szkoła Wyższa z siedzibą we Wrocławiu,DSW
Dolnośląska Wyższa Szkoła Przedsiębiorczości i Techniki w Polkowicach,DWSPTP
Elbląska Uczelnia Humanistyczno-Ekonomiczna w Elblągu,EUHEE
Europejska Akademia Sztuk w Warszawie,EASW
Europejska Szkoła Wyższa w Sopocie z siedzibą w Sopocie,ESWSSS
Europejska Uczelnia Informatyczno-Ekonomiczna w Warszawie [do 2013-11-04 Europejska Wyższa Szkoła Informatyczno-Ekonomiczna w Warszawa],EWSIEW
Europejska Uczelnia Społeczno - Techniczna w Radomiu [do 2013-11-24 Wyższa Szkoła Nauk Społecznych i Technicznych w Radomiu],WSNSTR
Europejska Wyższa Szkoła Prawa i Administracji w Warszawie,EWSPAW
Ewangelikalna Wyższa Szkoła Teologiczna we Wrocławiu,EWSTW
Gdańska Szkoła Wyższa z siedzibą w Gdańsku,GWSA
Gdańska Wyższa Szkoła Humanistyczna,GWSH
Gdański Uniwersytet Medyczny,GUM
Gliwicka Wyższa Szkoła Przedsiębiorczości w Gliwicach,GWSPG
Gnieźnieńska Szkoła Wyższa Milenium z siedzibą w Gnieźnie,GWSHMMG
Górnośląska Wyższa Szkoła Handlowa im. Wojciecha Korfantego w Katowicach,GWSHWKK
Górnośląska Wyższa Szkoła Pedagogiczna im. Kard. Augusta Hlonda w Mysłowicach,GWSPKAHM
Górnośląska Wyższa Szkoła Przedsiębiorczości im. Karola Goduli w Chorzowie,GWSPKGC
Instytut Teologiczny im. bł. Wincentego Kadłubka w Sandomierzu,ITWKS
Instytut Teologiczny im. św. Jana Kantego w Bielsku-Białej,ITJKB
Karkonoska Państwowa Szkoła Wyższa w Jeleniej Górze,KPSWJG
Kaszubsko-Pomorska Szkoła Wyższa w Wejherowie,KPSWW
Katolicki Uniwersytet Lubelski Jana Pawła II w Lublinie,KUL
Kolegium Jagiellońskie – Toruńska Szkoła Wyższa [do 2013-09-10 Toruńska Szkoła Wyższa],TSW
Koszalińska Wyższa Szkoła Nauk Humanistycznych w Koszalinie,KWSNHK
Krakowska Akademia im. Andrzeja Frycza Modrzewskiego w Krakowie,KAAFMK
Krakowska Wyższa Szkoła Promocji Zdrowia w Krakowie,KWSPZK
Kujawsko-Pomorska Szkoła Wyższa w Bydgoszczy,KPSWB
Lingwistyczna Szkoła Wyższa w Warszawie,LSWW
Lubelska Szkoła Wyższa w Rykach,LSWR
Lubuska Wyższa Szkoła Zdrowia Publicznego w Zielonej Górze,LWSZPZG
Łużycka Wyższa Szkoła Humanistyczna im. Jana Benedykta Solfy w Żarach,LWSHJBSZ
Małopolska Wyższa Szkoła Ekonomiczna w Tarnowie,MWSET
Małopolska Wyższa Szkoła im. Józefa Dietla w Krakowie [do 2014-01-19 Małopolska Wyższa Szkoła im. Józefa Dietla w Krakowie z siedzibą w Krakowie],MWSZJDK
Mazowiecka Wyższa Szkoła Humanistyczno-Pedagogiczna w Łowiczu,MWSHPL
Międzynarodowa Wyższa Szkoła Logistyki i Transportu we Wrocławiu,MWSLTW
Nadbużańska Szkoła Wyższa w Siemiatyczach z siedzibą w Siemiatyczach,NSWS
Niepaństwowa Wyższa Szkoła Pedagogiczna w Białymstoku,NWSPB
Niepubliczna Wyższa Szkoła Medyczna we Wrocławiu,NWSMW
Olsztyńska Szkoła Wyższa im. Józefa Rusieckiego,OSWJR
Państwowa Medyczna Wyższa Szkoła Zawodowa w Opolu,PMWSZO
Państwowa Szkoła Wyższa im. Papieża Jana Pawła II w Białej Podlaskiej,PSWPJPIBP
"Państwowa Wyższa Szkoła Filmowa, Telewizyjna i Teatralna im. Leona Schillera w Łodzi",PWSFTTLSL
Państwowa Wyższa Szkoła Informatyki i Przedsiębiorczości w Łomży,PWSIIP
Państwowa Wyższa Szkoła Teatralna im. Ludwika Solskiego w Krakowie,PWSTLSK
Państwowa Wyższa Szkoła Techniczno-Ekonomiczna im. ks. Bronisława Markiewicza w Jarosławiu,PWSTEBMJ
Państwowa Wyższa Szkoła Wschodnioeuropejska w Przemyślu,PWSWP
Państwowa Wyższa Szkoła Zawodowa im. Angelusa Silesiusa w Wałbrzychu,PWSZASW
Państwowa Wyższa Szkoła Zawodowa im. Hipolita Cegielskiego w Gnieźnie [do 2013-06-11 Państwowa Wyższa Szkoła Zawodowa w Gnieźnie],PWSZG3
Państwowa Wyższa Szkoła Zawodowa im. Jakuba z Paradyża w Gorzowie Wielkopolskim [do 2013-09-25 Państwowa Wyższa Szkoła Zawodowa w Gorzowie Wielkopolskim],PWSZGW
Państwowa Wyższa Szkoła Zawodowa im. Jana Amosa Komeńskiego w Lesznie,PWSZJAKL
Państwowa Wyższa Szkoła Zawodowa im. Jana Grodka w Sanoku,PWSZJGS
Państwowa Wyższa Szkoła Zawodowa im. Prezydenta Stanisława Wojciechowskiego w Kaliszu,PWSZPSWK
Państwowa Wyższa Szkoła Zawodowa im. prof. E. Szczepanika w Suwałkach,PWSZS1
Państwowa Wyższa Szkoła Zawodowa im. prof. Stanisława Tarnowskiego w Tarnobrzegu,PWSZSTT
Państwowa Wyższa Szkoła Zawodowa im. rotmistrza Witolda Pileckiego w Oświęcimiu,PWSZRWPO
Państwowa Wyższa Szkoła Zawodowa im. Stanisława Pigonia w Krośnie [do 2012-07-26 Państwowa Wyższa Szkoła Zawodowa w Krośnie],PWSZK1
Państwowa Wyższa Szkoła Zawodowa im. Stanisława Staszica w Pile,PWSZSSP
Państwowa Wyższa Szkoła Zawodowa im. Szymona Szymonowica w Zamościu,PWSZSSZ
Państwowa Wyższa Szkoła Zawodowa im. Witelona w Legnicy,PWSZWL
Państwowa Wyższa Szkoła Zawodowa w Chełmie,PWSZC
Państwowa Wyższa Szkoła Zawodowa w Ciechanowie,PWSZC1
Państwowa Wyższa Szkoła Zawodowa w Elblągu,PWSZE
Państwowa Wyższa Szkoła Zawodowa w Głogowie,PWSZG2
Państwowa Wyższa Szkoła Zawodowa w Koninie,PWSZK
Państwowa Wyższa Szkoła Zawodowa w Koszalinie,PWSZK2
Państwowa Wyższa Szkoła Zawodowa w Nowym Sączu,PWSZNS
Państwowa Wyższa Szkoła Zawodowa w Nysie,PWSZN
Państwowa Wyższa Szkoła Zawodowa w Płocku,PWSZP
Państwowa Wyższa Szkoła Zawodowa w Raciborzu,PWSZwR
Państwowa Wyższa Szkoła Zawodowa w Sandomierzu,PWSZS3
Państwowa Wyższa Szkoła Zawodowa w Skierniewicach,PWSZS2
Państwowa Wyższa Szkoła Zawodowa w Sulechowie,PWSZS
Państwowa Wyższa Szkoła Zawodowa w Tarnowie,PWSZT
Państwowa Wyższa Szkoła Zawodowa w Wałczu,PWSZW1
Państwowa Wyższa Szkoła Zawodowa we Włocławku,PWSZW
Papieski Wydział Teologiczny w Warszawie,PWTW
Papieski Wydział Teologiczny we Wrocławiu,PWTW1
Pedagogium Wyższa Szkoła Nauk Społecznych w Warszawie,PWSNSW
Podhalańska Państwowa Wyższa Szkoła Zawodowa w Nowym Targu,PPWSZNT
Podkarpacka Szkoła Wyższa im. bł. ks. Władysława Findysza w Jaśle,PSWBWFJ
Podkowiańska Wyższa Szkoła Medyczna im. Zofii i Jonasza Łyko w Podkowie Leśnej,PWSMZJLPL
Politechnika Białostocka,PB
Politechnika Częstochowska,PCz
Politechnika Gdańska,PG
Politechnika Koszalińska,PK
Politechnika Krakowska im. Tadeusza Kościuszki,PKTK
Politechnika Lubelska,PL
Politechnika Łódzka,PL1
Politechnika Opolska,PO
Politechnika Poznańska,PP
Politechnika Rzeszowska im. Ignacego Łukasiewicza,PRIL
Politechnika Śląska,PSG
Politechnika Świętokrzyska w Kielcach,PSK
Politechnika Warszawska,PW
Politechnika Wrocławska,PW1
"Polsko-Czeska Wyższa Szkoła Biznesu i Sportu ""Collegium Glacense"" w Nowej Rudzie",PCWSBSCGNR
Polsko-Japońska Wyższa Szkoła Technik Komputerowych,PJWSTK
Pomorska Szkoła Wyższa w Starogardzie Gdańskim,PSWSG
Pomorska Wyższa Szkoła Nauk Stosowanych w Gdyni,PWSNSG
Pomorski Uniwersytet Medyczny w Szczecinie,PUMS
Powiślańska Szkoła Wyższa w Kwidzynie,PSWK
"Powszechna Wyższa Szkoła Humanistyczna ""Pomerania"" w Chojnicach",PWSHPC
Poznańska Wyższa Szkoła Biznesu w Poznaniu,PWSBP
Prawosławne Seminarium Duchowne w Warszawie,PSDW
"Prywatna Wyższa Szkoła Nauk Społecznych, Komputerowych i Medycznych z siedzibą w Warszawie [do 2013-12-22 Prywatna Wyższa Szkoła Businessu, Administracji i Technik Komputerowych w Warszawie]",PWSBATKW
Prywatna Wyższa Szkoła Ochrony Środowiska w Radomiu,PWSOSR
Radomska Szkoła Wyższa,RSW
Salezjańska Wyższa Szkoła Ekonomii i Zarządzania w Łodzi,SWSEZL
Sopocka Szkoła Wyższa z siedzibą w Sopocie,SSW
Społeczna Akademia Nauk z siedzibą w Łodzi,SWSPZL
Stargardzka Szkoła Wyższa Stargardinum w Stargardzie Szczecińskim,SSWSSS
"Staropolska Szkoła Wyższa w Kielcach [do 2013-07-25 Wyższa Szkoła Ekonomii, Turystyki i Nauk Społecznych w Kielcach]",WSETNSK
Sudecka Wyższa Szkoła w Kłodzku z siedzibą w Kłodzku,SWSK
Szczecińska Szkoła Wyższa Collegium Balticum w Szczecinie,SSWCBS
Szkoła Główna Gospodarstwa Wiejskiego w Warszawie,SGGW
Szkoła Główna Handlowa w Warszawie,SGHW
Szkoła Główna Służby Pożarniczej,SGSP
"Szkoła Główna Turystyki i Rekreacji [do 2012-11-05 Wyższa Szkoła Hotelarstwa, Gastronomii i Turystyki w Warszawie]",WSHGTW
Szkoła Wyższa im. Bogdana Jańskiego w Warszawie,SWBJW
Szkoła Wyższa im. Pawła Włodkowica w Płocku,SWPWP
Szkoła Wyższa Przymierza Rodzin w Warszawie,SWPRW
Szkoła Wyższa Psychologii Społecznej w Warszawie,SWPSW
Szkoła Wyższa Rzemiosł Artystycznych i Zarządzania we Wrocławiu,SWRAZW
Śląska Wyższa Szkoła Informatyczno-Medyczna w Chorzowie,SWSIMC
Śląska Wyższa Szkoła Medyczna w Katowicach,SWSMK
Śląska Wyższa Szkoła Zarządzania im. Gen. Jerzego Ziętka w Katowicach,SWSZGJZK
Śląski Uniwersytet Medyczny w Katowicach,SUMK
Świętokrzyska Szkoła Wyższa w Kielcach,SSWK
Tarnowska Szkoła Wyższa z siedzibą w Tarnowie [do 2014-05-08 Małopolska Szkoła Wyższa w Brzesku],MSWB
Toruńska Wyższa Szkoła Przedsiębiorczości,TWSP
Uczelnia im. Edwarda Herzberga z siedzibą w Grudziądzu [do 2014-04-29 Grudziądzka Szkoła Wyższa],GSW
Uczelnia Jańskiego z siedzibą w Łomży [do 2014-02-10 Wyższa Szkoła Zarządzania i Przedsiębiorczości im. B. Jańskiego w Łomży],WSZPBJL
Uczelnia Łazarskiego w Warszawie,ULW
Uczelnia Nauk Społecznych [do 2013-12-26 Uczelnia Nauk Społecznych z siedzibą w Łodzi],UNSSL
Uczelnia Techniczno-Handlowa im. Heleny Chodkowskiej [do 2014-02-20 Wyższa Szkoła Zarządzania i Prawa im. Heleny Chodkowskiej w Warszawie],WSZPHCW
Uczelnia Warszawska im. Marii Skłodowskiej-Curie w Warszawie,UWMSC
Uczelnia Zawodowa Zagłębia Miedziowego w Lubinie,UZZML
Uniwersytet Artystyczny w Poznaniu,UAP
Uniwersytet Ekonomiczny w Katowicach,UEK
Uniwersytet Ekonomiczny w Krakowie,UEK1
Uniwersytet Ekonomiczny w Poznaniu,UEP
Uniwersytet Ekonomiczny we Wrocławiu,UEW
Uniwersytet Gdański,UG
Uniwersytet im. Adama Mickiewicza w Poznaniu,UAMP
Uniwersytet Jagielloński w Krakowie,UJK
Uniwersytet Jana Kochanowskiego w Kielcach,UJKK
Uniwersytet Kardynała Stefana Wyszyńskiego w Warszawie,UKSW
Uniwersytet Kazimierza Wielkiego w Bydgoszczy,UKWB
Uniwersytet Łódzki,UL
Uniwersytet Marii Curie-Skłodowskiej w Lublinie,UMCS
Uniwersytet Medyczny im. Karola Marcinkowskiego w Poznaniu,UMP
Uniwersytet Medyczny im. Piastów Śląskich we Wrocławiu [do 2012-08-24 Akademia Medyczna im. Piastów Śląskich we Wrocławiu],AMPSW
Uniwersytet Medyczny w Białymstoku,UMB
Uniwersytet Medyczny w Lublinie,UMLUB
Uniwersytet Medyczny w Łodzi,UML
Uniwersytet Mikołaja Kopernika w Toruniu,UMK
Uniwersytet Muzyczny Fryderyka Chopina w Warszawie,UMFC
Uniwersytet Opolski,UO
Uniwersytet Papieski Jana Pawła II w Krakowie,UPJPII
Uniwersytet Pedagogiczny im. Komisji Edukacji Narodowej w Krakowie,UP
Uniwersytet Przyrodniczo-Humanistyczny w Siedlcach,UPHS
Uniwersytet Przyrodniczy w Lublinie,UPL
Uniwersytet Przyrodniczy w Poznaniu,UPP
Uniwersytet Przyrodniczy we Wrocławiu,UPW
Uniwersytet Rolniczy im. Hugona Kołłątaja w Krakowie,URHKK
Uniwersytet Rzeszowski,UR
Uniwersytet Szczeciński,US
Uniwersytet Śląski w Katowicach,USK
Uniwersytet Technologiczno-Humanistyczny im. Kazimierza Pułaskiego w Radomiu [do 2012-09-11 Politechnika Radomska im. Kazimierza Pułaskiego],PRKP
Uniwersytet Technologiczno-Przyrodniczy im. Jana i Jędrzeja Śniadeckich w Bydgoszczy,UTPJJSB
Uniwersytet w Białymstoku,UWB
Uniwersytet Warmińsko-Mazurski w Olsztynie,UWMO
Uniwersytet Warszawski,UW
Uniwersytet Wrocławski,UWr
Uniwersytet Zielonogórski,UZ
VIAMODA Szkoła Wyższa z siedzibą w Warszawie,VIAMODASWW
Wałbrzyska Wyższa Szkoła Zarządzania i Przedsiębiorczości,WWSZP
Warszawska Szkoła Filmowa z siedzibą w Warszawie,WSFW
Warszawska Szkoła Zarządzania - Szkoła Wyższa w Warszawie,WSZSWW
Warszawska Wyższa Szkoła Ekonomiczna im. Edwarda Wiszniewskiego w Warszawie,WWSEEWW
Warszawska Wyższa Szkoła Humanistyczna im. Bolesława Prusa (decyzja z dnia 06.07.2006 r.) [do 2013-04-28 Warszawska Wyższa Szkoła Humanistyczna im. Bolesława Prusa w Warszawie],WWSHBPW
Warszawska Wyższa Szkoła Informatyki w Warszawie,WWSIW
Warszawski Uniwersytet Medyczny,WUM
Wielkopolska Wyższa Szkoła Humanistyczno-Ekonomiczna w Jarocinie,WWSHEJ
Wielkopolska Wyższa Szkoła Społeczno-Ekonomiczna w Środzie Wielkopolskiej,WWSSESW
Wojskowa Akademia Techniczna im. Jarosława Dąbrowskiego,WAT
Wrocławska Wyższa Szkoła Informatyki Stosowanej we Wrocławiu,WWSISW
"Wschód-Zachód Szkoła Wyższa im. Henryka Jóźwiaka [do 2012-03-29 ""Wschód - Zachód"" Szkoła Wyższa im. Henryka Jóźwiaka w Łodzi]",WZSWHJL
Wszechnica Polska Szkoła Wyższa w Warszawie,WPSWTW
Wszechnica Świętokrzyska w Kielcach,WSK
Wyższa Hanzeatycka Szkoła Zarządzania w Słupsku,WHSZS
Wyższa Inżynierska Szkoła Bezpieczeństwa i Organizacji Pracy w Radomiu,WISBOPR
Wyższa Szkoła - Edukacja w Sporcie w Warszawie,WSEWS
Wyższa Szkoła Administracji i Biznesu im. Eugeniusza Kwiatkowskiego w Gdyni,WSABEKG
Wyższa Szkoła Administracji i Zarządzania w Zawierciu,WSAZZ
Wyższa Szkoła Administracji Publicznej imienia Stanisława Staszica w Białymstoku,WSAPSSB
Wyższa Szkoła Administracji Publicznej w Kielcach,WSAPK
Wyższa Szkoła Administracji Publicznej w Ostrołęce,WSAPO
Wyższa Szkoła Administracji Publicznej w Szczecinie,WSAPS
Wyższa Szkoła Administracji w Bielsku-Białej,WSABB
Wyższa Szkoła Administracyjno-Społeczna w Warszawie,WSASW
Wyższa Szkoła Agrobiznesu w Łomży,WSAL
Wyższa Szkoła Artystyczna w Warszawie,WSAW
Wyższa Szkoła Bankowa w Gdańsku,WSBG
Wyższa Szkoła Bankowa w Poznaniu,WSBP
Wyższa Szkoła Bankowa w Toruniu,WSBT
Wyższa Szkoła Bankowa we Wrocławiu,WSBW
Wyższa Szkoła Bankowości i Finansów z siedzibą w katowicach [do 2013-11-28 Wyższa Szkoła Bankowości i Finansów w Katowicach],WSBFK
Wyższa Szkoła Bezpieczeństwa i Ochrony im. Marszałka Józefa Piłsudskiego w Warszawie,WSBOMJPW
"Wyższa Szkoła Bezpieczeństwa Publicznego i Indywidualnego ""Apeiron"" w Krakowie",WSBPIAK
Wyższa Szkoła Bezpieczeństwa w Poznaniu,WSBP2
Wyższa Szkoła Bezpieczeństwa w Przemyślu [do 2014-05-20 Wyższa Szkoła Gospodarcza w Przemyślu],WSG
Wyższa Szkoła Biznesu - National Louis University z siedzibą w Nowym Sączu,WSBNLUNS
Wyższa Szkoła Biznesu i Administracji w Łukowie,WSBAL
Wyższa Szkoła Biznesu i Nauk o Zdrowiu w Łodzi,WSBNOZL
Wyższa Szkoła Biznesu i Przedsiębiorczości w Ostrowcu Świętokrzyskim,WSBPOS
Wyższa Szkoła Biznesu i Zarządzania w Ciechanowie,WSBZC
Wyższa Szkoła Biznesu im. Biskupa Jana Chrapka w Radomiu,WSBBJCR
Wyższa Szkoła Biznesu w Dąbrowie Górniczej,WSBDG
Wyższa Szkoła Biznesu w Gorzowie Wlkp.,WSBGW
Wyższa Szkoła Biznesu w Pile,WSBP1
Wyższa Szkoła COSINUS w Łodzi,WSCL
Wyższa Szkoła Demokracji z siedzibą w Grudziądzu,WSDG
Wyższa Szkoła Edukacji i Terapii w Poznaniu,WSETP
Wyższa Szkoła Edukacji Integracyjnej i Interkulturowej,WSEII
Wyższa Szkoła Edukacji Zdrowotnej i Nauk Społecznych w Łodzi,WSEZNSL
Wyższa Szkoła Ekologii i Zarządzania w Warszawie,WSEZW
Wyższa Szkoła Ekonomiczna w Białymstoku,WSEB
Wyższa Szkoła Ekonomiczna w Stalowej Woli,WSESW
Wyższa Szkoła Ekonomiczno-Humanistyczna im. prof. Szczepana A. Pieniążka w Skierniewicach,WSEHSAPS
Wyższa Szkoła Ekonomiczno-Humanistyczna w Bielsku-Białej,WSEH_BB
Wyższa Szkoła Ekonomiczno-Społeczna w Ostrołęce,WSESO
Wyższa Szkoła Ekonomii i Administracji w Bytomiu,WSEAB
Wyższa Szkoła Ekonomii i Informatyki w Krakowie,WSEIK
Wyższa Szkoła Ekonomii i Innowacji w Lublinie,WSEIL
"Wyższa Szkoła Ekonomii, Prawa i Nauk Medycznych im. prof. Edwarda Lipińskiego w Kielcach [do 2013-07-17 Wyższa Szkoła Ekonomii i Prawa im. prof. Edwarda Lipińskiego]",WSEPEL
Wyższa Szkoła Europejska im. Ks. Józefa Tischnera w Krakowie,WSEJTK
Wyższa Szkoła Filologiczna we Wrocławiu,WSFIL
Wyższa Szkoła Filologii Hebrajskiej w Toruniu,WSFHT
Wyższa Szkoła Finansów i Informatyki im. prof. Janusza Chechlińskiego w Łodzi,WSFIJCL
Wyższa Szkoła Finansów i Prawa w Bielsku-Białej,WSFPBB
Wyższa Szkoła Finansów i Zarządzania w Białymstoku,WSFiZ
Wyższa Szkoła Finansów i Zarządzania w Warszawie,WSFZW
Wyższa Szkoła Fizjoterapii we Wrocławiu,WSFW1
Wyższa Szkoła Gospodarki Euroregionalnej im. Alcide De Gasperi w Józefowie,WSGEADGJ
Wyższa Szkoła Gospodarki i Zarządzania w Krakowie,WSGZK
Wyższa Szkoła Gospodarki Krajowej w Kutnie,WSGKK
Wyższa Szkoła Gospodarki w Bydgoszczy,WSGB
Wyższa Szkoła Gospodarowania Nieruchomościami w Warszawie,WSGNW
Wyższa Szkoła Handlowa im. Bolesława Markowskiego w Kielcach,WSHBMK
Wyższa Szkoła Handlowa im. Króla Stefana Batorego w Piotrkowie Trybunalskim,WSHKSBPT
Wyższa Szkoła Handlowa w Radomiu,WSHR
Wyższa Szkoła Handlowa we Wrocławiu,WSHW
Wyższa Szkoła Handlu i Finansów Międzynarodowych im. Fryderyka Skarbka w Warszawie,WSHFMFSW
Wyższa Szkoła Handlu i Rachunkowości w Poznaniu,WSHRP
Wyższa Szkoła Handlu i Usług w Poznaniu,WSHUP
Wyższa Szkoła Hotelarstwa i Gastronomii w Poznaniu,WSHGP
Wyższa Szkoła Hotelarstwa i Turystyki w Częstochowie,WSHTC
Wyższa Szkoła Humanistyczna im. Króla Stanisława Leszczyńskiego w Lesznie,WSHKSLL
Wyższa Szkoła Humanistyczna TWP w Szczecinie,WSHTS
Wyższa Szkoła Humanistyczna we Wrocławiu,WSHW1
Wyższa Szkoła Humanistyczno-Ekonomiczna im. J. Zamoyskiego w Zamościu,WSHEJZZ
Wyższa Szkoła Humanistyczno-Ekonomiczna w Brzegu,WSHEB
Wyższa Szkoła Humanistyczno-Ekonomiczna w Pabianicach,WSHEP
Wyższa Szkoła Humanistyczno-Ekonomiczna w Sieradzu,WSHES
Wyższa Szkoła Humanistyczno-Ekonomiczna we Włocławku,WSHEW
Wyższa Szkoła Humanistyczno-Przyrodnicza Studium Generale Sandomiriense w Sandomierzu,WSHPSGSS
Wyższa Szkoła Humanitas w Sosnowcu,WSHS
Wyższa Szkoła Informatyki i Ekonomii TWP w Olsztynie,WSIETO
Wyższa Szkoła Informatyki i Umiejętności z siedzibą w Łodzi,WSIL
"Wyższa Szkoła Informatyki i Zarządzania ""COPERNICUS"" we Wrocławiu",WSIZCW
Wyższa Szkoła Informatyki i Zarządzania im. Prof. Tadeusza Kotarbińskiego z siedzibą w Olsztynie [do 2014-04-01 Olsztyńska Wyższa Szkoła Informatyki i Zarządzania im. prof. Tadeusza Kotarbińskiego w Olsztynie],OWSIiZ
Wyższa Szkoła Informatyki i Zarządzania w Bielsku-Białej,WSIZBB
Wyższa Szkoła Informatyki i Zarządzania w Przemyślu,WSIZP
Wyższa Szkoła Informatyki i Zarządzania w Rzeszowie,WSIZR
Wyższa Szkoła Informatyki Stosowanej i Zarządzania w Warszawie,WSISZW
"Wyższa Szkoła Informatyki, Zarządzania i Administracji w Warszawie",WSIZAW
Wyższa Szkoła Infrastruktury i Zarządzania w Warszawie,WSIZW
Wyższa Szkoła Integracji Europejskiej w Szczecinie,WSIES
Wyższa Szkoła Inżynierii Bezpieczeństwa i Ekologii w Sosnowcu,WSIBiE
Wyższa Szkoła Inżynierii Dentystycznej i Nauk Humanistycznych im prof. Meissnera w Ustroniu,WSIDNHIMU
Wyższa Szkoła Inżynierii Gospodarki w Słupsku,WSIGS
Wyższa Szkoła Inżynieryjno-Ekonomiczna w Rzeszowie,WSIER
Wyższa Szkoła Języków Obcych im. Samuela Bogumiła Lindego z siedzibą w Poznaniu,WSJOSBLSP
Wyższa Szkoła Języków Obcych w Szczecinie,WSJOS
Wyższa Szkoła Języków Obcych w Świeciu,WSJOS1
Wyższa Szkoła Kadr Menedżerskich w Koninie z siedzibą w Koninie,WSKMK
Wyższa Szkoła Komunikacji i Zarządzania w Poznaniu,WSKiZ
Wyższa Szkoła Komunikacji Społecznej w Gdyni,WSKS
Wyższa Szkoła Komunikowania i Mediów Społecznych im. Jerzego Giedroycia w Warszawie,WSKMSJGW
"Wyższa Szkoła Komunikowania, Politologii i Stosunków Międzynarodowych w Warszawie",WSKPSMW
Wyższa Szkoła Kosmetologii i Promocji Zdrowia w Szczecinie,WSKPZS
Wyższa Szkoła Kosmetyki i Nauk o Zdrowiu w Łodzi,WSKNOZL
Wyższa Szkoła Kultury Fizycznej i Turystyki im. Haliny Konopackiej w Pruszkowie,WSKFTHKP
Wyższa Szkoła Kultury Społecznej i Medialnej w Toruniu,WSKSMT
Wyższa Szkoła Kupiecka w Łodzi,WSKL
Wyższa Szkoła Lingwistyczna w Częstochowie,WSLC
Wyższa Szkoła Logistyki w Poznaniu,WSLP
Wyższa Szkoła Marketingu i Zarządzania w Lesznie,WSMZL
Wyższa Szkoła Mazowiecka w Warszawie,WSMW1
Wyższa Szkoła Mechatroniki w Katowicach,WSMK
Wyższa Szkoła Medyczna w Legnicy z siedzibą w Legnicy,WSMLL
Wyższa Szkoła Medyczna w Sosnowcu,WSMS
Wyższa Szkoła Medyczna z siedzibą w Białymstoku,WSKOZB
Wyższa Szkoła Menedżerska w Białymstoku,WSMB
Wyższa Szkoła Menedżerska w Jeleniej Górze,WSMJG
Wyższa Szkoła Menedżerska w Legnicy,WSML
Wyższa Szkoła Menedżerska w Warszawie,WSMW
Wyższa Szkoła Nauk Humanistycznych i Dziennikarstwa w Poznaniu,WSNHiD
Wyższa Szkoła Nauk o Zdrowiu w Bydgoszczy,WSNOZB
Wyższa Szkoła Nauk Prawnych i Administracji im. Leona Petrażyckiego z siedzibą w Wołominie [do 2013-07-24 Prywatna Wyższa Szkoła Zawodowa z siedzibą w Wołominie],PWSZG1
Wyższa Szkoła Nauk Społecznych im. Ks. J. Majki w Mińsku Mazowieckim,WSNSJMMM
Wyższa Szkoła Nauk Społecznych z siedzibą w Lublinie [do 2014-02-04 Wyższa Szkoła Nauk Społecznych w Lublinie],WSNSL
Wyższa Szkoła Nauk Stosowanych w Rudzie Śląskiej,WSNSRS
Wyższa Szkoła Oficerska Sił Powietrznych,WSOSP
Wyższa Szkoła Oficerska Wojsk Lądowych imienia generała Tadeusza Kościuszki,WSOWL
Wyższa Szkoła Organizacji Turystyki i Hotelarstwa w Warszawie,WSOTIH
Wyższa Szkoła Pedagogiczna im. Janusza Korczaka w Warszawie [do 2013-04-29 Wyższa Szkoła Pedagogiczna TWP w Warszawie],WSPTWP
Wyższa Szkoła Pedagogiczna w Łodzi,WSPL
Wyższa Szkoła Pedagogiczna Związku Nauczycielstwa Polskiego w Warszawie,WSPZNPW
Wyższa Szkoła Pedagogiczno-Techniczna w Koninie,WSPTK
Wyższa Szkoła Pedagogiki i Administracji im. Mieszka I w Poznaniu,WSPAMP
Wyższa Szkoła Planowania Strategicznego w Dąbrowie Górniczej,WSPSDG
Wyższa Szkoła Policji w Szczytnie,WSPS
Wyższa Szkoła Prawa i Administracji w Przemyślu,WSPiA
Wyższa Szkoła Promocji w Warszawie,WSPW
Wyższa Szkoła Przedsiębiorczości i Administracji w Lublinie,WSPAL
Wyższa Szkoła Przedsiębiorczości i Marketingu w Chrzanowie,WSPMC
Wyższa Szkoła Przedsiębiorczości i Nauk Społecznych w Otwocku,WSPNSO
Wyższa Szkoła Przedsiębiorczości w Warszawie,WSPW1
Wyższa Szkoła Przedsiębiorczości z siedzibą w Nowym Sączu [do 2012-09-30 Wyższa Szkoła Przedsiębiorczości w likwidacji z siedzibą w Nowym Sączu],WSPNS
Wyższa Szkoła Rehabilitacji w Warszawie,WSRW
Wyższa Szkoła Rozwoju Lokalnego w Żyrardowie,WSRLZ
Wyższa Szkoła Służb Lotniczych z siedzibą w Bydgoszczy [do 2013-07-03 Wyższa Szkoła Środowiska z siedzibą w Bydgoszczy],WSSB
Wyższa Szkoła Społeczno-Ekonomiczna w Gdańsku,WSSEG
Wyższa Szkoła Społeczno-Ekonomiczna w Warszawie,WSSEW
Wyższa Szkoła Społeczno-Gospodarcza z siedzibą w Przeworsku,WSSGP
Wyższa Szkoła Społeczno-Przyrodnicza im. Wincentego Pola w Lublinie,WSSPWPL
Wyższa Szkoła Sportowa im. Kazimierza Górskiego w Łodzi,WSSKGL
Wyższa Szkoła Stosunków Międzynarodowych i Amerykanistyki w Warszawie,WSSMAW
Wyższa Szkoła Stosunków Międzynarodowych i Komunikacji Społecznej w Chełmie,WSSMKSC
Wyższa Szkoła Studiów Międzynarodowych w Łodzi,WSSML
Wyższa Szkoła Suwalsko-Mazurska im. Papieża Jana Pawła II,WSSMPJPI
Wyższa Szkoła Sztuk Filmowych i Teatralnych z siedzibą w Warszawie [do 2012-05-08 Wyższa Szkoła Liderów Społecznych i Mediów z siedzibą w Warszawie],WSLSMW
Wyższa Szkoła Sztuki i Projektowania w Łodzi,WSSPL
Wyższa Szkoła Techniczna w Katowicach,WSTK
Wyższa Szkoła Techniczna we Włocławku [do 2013-05-23 Wyższa Szkoła Techniki i Przedsiębiorczości we Włocławku],WSTiP
Wyższa Szkoła Techniczno-Ekonomiczna w Szczecinie,WSTES
Wyższa Szkoła Techniczno-Ekonomiczna w Świdnicy z siedzibą w Świdnicy [do 2012-09-05 Wyższa Szkoła Technologii Teleinformatycznych w Świdnicy],WSTTS
Wyższa Szkoła Techniczno-Ekonomiczna w Warszawie,WSTEW
"Wyższa Szkoła Techniczno-Humanistyczna - Kadry dla Europy z siedzibą w Poznaniu [do 2014-04-15 Wyższa Szkoła Zawodowa ""Kadry dla Europy"" w Poznaniu]",WSZKDEP
Wyższa Szkoła Techniczno-Przyrodnicza w Poznaniu z siedzibą w Poznaniu,WSTPPP
Wyższa Szkoła Technik Komputerowych i Telekomunikacji w Kielcach,WSTKTK
Wyższa Szkoła Technologii Informatycznych w Katowicach,WSTIK
Wyższa Szkoła Technologii Informatycznych w Warszawie,WSTIW
Wyższa Szkoła Trenerów Sportu w Warszawie,WSTSW
Wyższa Szkoła Turystyki i Ekologii w Suchej Beskidzkiej,WSTESB
Wyższa Szkoła Turystyki i Hotelarstwa w Gdańsku,WSTHG
Wyższa Szkoła Turystyki i Języków Obcych w Warszawie,WSTiJO
Wyższa Szkoła Ubezpieczeń w Krakowie,WSUK
Wyższa Szkoła Umiejętności Społecznych w Poznaniu,WSUSP
Wyższa Szkoła Umiejętności Zawodowych w Pińczowie,WSUZP
Wyższa Szkoła Współpracy Międzynarodowej i Regionalnej im. Zygmunta Glogera z siedzibą w Wołominie,WSWMRZGSW
Wyższa Szkoła Wychowania Fizycznego i Turystyki w Białymstoku,WSWFTB
"Wyższa Szkoła Zarządzania ""Edukacja"" we Wrocławiu",WSZEW
Wyższa Szkoła Zarządzania i Administracji w Opolu,WSZAO
Wyższa Szkoła Zarządzania i Administracji w Zamościu,WSZAZ
Wyższa Szkoła Zarządzania i Bankowości w Krakowie,WSZBK
Wyższa Szkoła Zarządzania i Bankowości w Poznaniu,WSZIB
Wyższa Szkoła Zarządzania i Coachingu we Wrocławiu,WSZCW
Wyższa Szkoła Zarządzania i Marketingu w Sochaczewie,WSZMS
Wyższa Szkoła Zarządzania Marketingowego i Języków Obcych w Katowicach,WSZMiJO
Wyższa Szkoła Zarządzania Ochroną Pracy w Katowicach,WSZOPK
Wyższa Szkoła Zarządzania Personelem w Warszawie,WSZPW
Wyższa Szkoła Zarządzania Środowiskiem w Tucholi,WSZST
Wyższa Szkoła Zarządzania w Częstochowie,WSZC
Wyższa Szkoła Zarządzania w Gdańsku,WSZG
Wyższa Szkoła Zarządzania w Rzeszowie,WSZR
Wyższa Szkoła Zarządzania w Warszawie,WSZW
Wyższa Szkoła Zawodowa Kosmetyki i Pielęgnacji Zdrowia w Warszawie,WSZKiPZ
Wyższa Szkoła Zawodowa Łódzkiej Korporacji Oświatowej w Łodzi,WSZLKOL
Wyższa Szkoła Zawodowa Ochrony Zdrowia TWP w Łomży z siedzibą w Łomży,WSZOZTWPŁŁ
Wyższa Szkoła Zawodowa „Oeconomicus” Polskiego Towarzystwa Ekonomicznego z siedzibą w Szczecinie [do 2013-09-11 Wyższa Szkoła Zawodowa „Oeconomicus” Polskiego Towarzystwa Ekonomicznego w likwidacji z siedzibą w Szczecinie],WSZOPS
Wyższa Szkoła Zawodowa z siedzibą w Kostrzynie nad Odrą,WSZKO
"Wyższa Szkoła Zdrowia, Urody i Edukacji w Poznaniu",WSZUEP
Zachodnia Wyższa Szkoła Handlu i Finansów Międzynarodowych im. Jana Pawła II w Zielonej Górze,ZWSHFMJPIZG
Zachodniopomorska Szkoła Biznesu w Szczecinie,ZSBS
Zachodniopomorski Uniwersytet Technologiczny w Szczecinie,ZUTS
